1454336071.826000 0.0000000 0.0000000 0.0000000 0.0000000 0.0000000 0.0000000 1.0000000
1454336072.726000 -0.0034824 0.0007068 0.0036404 0.0007634 -0.0593255 0.0073885 0.9982111
1454336072.793000 -0.0036176 0.0007947 0.0038803 0.0009744 -0.0626751 0.0086618 0.9979959
1454336084.957000 0.0422999 -0.0238818 -0.0036976 -0.0370810 0.3170447 0.0438604 0.9466699
1454336086.690000 0.0222476 -0.0122485 0.0140873 -0.0241026 -0.3300481 0.0685209 0.9411653
1454336086.856000 0.0281387 -0.0133404 0.0059920 -0.0174382 -0.3137868 0.0682127 0.9468795
1454336087.056000 0.0283272 -0.0129323 -0.0033033 -0.0040047 -0.2295489 0.0572800 0.9716019
1454336089.523000 0.0717760 -0.0233476 -0.0984178 -0.0494581 0.1901025 0.0038838 0.9805100
1454336089.756000 0.0723207 -0.0214460 -0.0960687 -0.0592311 0.1830849 0.0129778 0.9812253
1454336089.989000 0.0706531 -0.0202445 -0.0816265 -0.0823632 0.1818650 -0.0095000 0.9798220
1454336090.789000 0.0648752 -0.0235419 -0.0766329 -0.0285699 0.4284459 -0.0349142 0.9024405
1454336091.056000 0.0567817 -0.0244242 -0.0766717 -0.0122185 0.4618470 -0.0525041 0.8853199
1454336091.322000 0.0512005 -0.0237085 -0.0634276 -0.0106728 0.4269705 -0.0670272 0.9017148
1454336091.622000 0.0456416 -0.0209990 -0.0446425 0.0226210 0.3049650 -0.0524135 0.9506510
1454336091.955000 0.0357158 -0.0156943 -0.0247005 0.0665851 0.1162157 -0.0233384 0.9907147
1454336094.355000 0.0393874 -0.0420393 -0.0106188 0.3587523 -0.1120162 0.1036428 0.9208731
1454336094.988000 0.0393894 -0.0431559 -0.0104014 0.4029742 -0.1146615 0.1130364 0.9009369
1454336095.155000 0.0418375 -0.0399418 -0.0028595 0.3629745 -0.1048045 0.0968407 0.9208080
1454336095.188000 0.0412161 -0.0400929 -0.0031165 0.3471438 -0.0991685 0.0936628 0.9278384
1454336095.221000 0.0398285 -0.0354881 0.0016423 0.3346688 -0.0977482 0.0928674 0.9326402
1454336098.487000 0.0163878 -0.0060781 0.0192875 0.0258103 -0.4434462 0.0809094 0.8922684
1454336098.654000 0.0178741 -0.0071214 0.0183558 0.0223663 -0.4125042 0.0705734 0.9079424
1454336101.487000 0.0421245 -0.0135222 -0.0333903 -0.0804593 0.3241165 -0.0337440 0.9419852
1454336101.753000 0.0634795 -0.0160018 -0.0471830 -0.0283587 0.4651378 -0.0105938 0.8847205
1454336102.053000 0.0596402 -0.0127098 -0.0387179 -0.0188424 0.4371195 0.0044770 0.8991949
1454336103.653000 0.0450616 -0.0446487 -0.0046880 0.2995637 -0.0877955 0.0645970 0.9478295
1454336104.553000 0.0498537 0.0101725 0.0024827 -0.1133443 0.0293684 -0.0180730 0.9929572
1454336109.252000 0.0510433 -0.0006983 0.0017085 -0.0413142 0.0727192 0.0463994 0.9954156
1454336110.318000 0.0631347 -0.0051922 -0.0151517 -0.0444561 0.2028136 -0.0005961 0.9782075
1454336110.618000 0.0639351 -0.0098951 -0.0292441 -0.0424638 0.3411706 -0.0236644 0.9387435
1454336114.284000 0.0432959 -0.0222136 -0.0107481 0.2231759 -0.1191797 0.1111036 0.9610644
1454336117.383000 0.0719210 -0.0179423 -0.0443732 0.0113827 0.4037962 0.0656674 0.9124181
1454336117.750000 0.0759234 -0.0088829 -0.0443902 -0.0880063 0.4726149 0.0508682 0.8753870
1454336118.116000 0.0757494 -0.0039884 -0.0455298 -0.2768590 0.5139700 0.0151534 0.8117600
1454336118.283000 0.0837565 -0.0072834 -0.0424870 -0.3584021 0.5180929 0.0227840 0.7762787
1454336118.383000 0.0829504 -0.0074445 -0.0429568 -0.3778936 0.5363067 0.0240560 0.7543162
1454336118.450000 0.0834147 -0.0076173 -0.0429422 -0.3924248 0.5401165 0.0308798 0.7438571
1454336118.516000 0.0844928 -0.0067165 -0.0422305 -0.4200485 0.5375864 0.0255816 0.7306885
1454336121.282000 0.0480034 -0.0022948 -0.0054970 -0.0241626 0.0790860 0.0087525 0.9965365
1454336125.515000 0.0167743 -0.0024575 -0.0007728 0.0342336 -0.0993896 0.1103248 0.9883209
1454336125.915000 0.0156185 -0.0041895 -0.0037728 0.0407605 -0.0900352 0.0993860 0.9901286
